…
    ## The combined dataset contains 845 observations.

``` r
cat("For example, here are some key variables:\n")
```

    ## For example, here are some key variables:

``` r
print(combined_trash_wheel %>% select(trash_wheel, dumpster, weight_tons, cigarette_butts))
```

    ## # A tibble: 845 × 4
    ##    trash_wheel     dumpster weight_tons cigarette_butts
    ##    <chr>              <dbl>       <dbl>           <dbl>
    ##  1 Mr. Trash Wheel        1        4.31          126000
    ##  2 Mr. Trash Wheel        2        2.74           91000
    ##  3 Mr. Trash Wheel        3        3.45          105000
    ##  4 Mr. Trash Wheel        4        3.1           100000
    ##  5 Mr. Trash Wheel        5        4.06          120000
    ##  6 Mr. Trash Wheel        6        2.71           90000
    ##  7 Mr. Trash Wheel        7        1.91           56000
    ##  8 Mr. Trash Wheel        8        3.7           112000
    ##  9 Mr. Trash Wheel        9        2.52           98000
    ## 10 Mr. Trash Wheel       10        3.76          130000
    ## # ℹ 835 more rows
…
# Clean and organize the merged dataset
final_data <- full_data %>%
  select(Series, Episode, Baker, `Signature Bake`, `Show Stopper`, `Baker Age`, `Baker Occupation`, technical, result) %>%
  arrange(Series, Episode)

# Export the cleaned dataset to a CSV file
write_csv(final_data, "/Users/wan/Downloads/gbb_datasets-2/final_bakeoff_data.csv")

# Print first 10 rows to verify the merged dataset
print(final_data, n = 10)
```

    ## # A tibble: 548 × 9
    ##    Series Episode Baker     `Signature Bake`          `Show Stopper` `Baker Age`
    ##     <dbl>   <dbl> <chr>     <chr>                     <chr>                <dbl>
    ##  1      1       1 Annetha   "Light Jamaican Black Ca… Red, White & …          NA
    ##  2      1       1 David     "Chocolate Orange Cake"   Black Forest …          NA
    ##  3      1       1 Edd       "Caramel Cinnamon and Ba… N/A                     NA
    ##  4      1       1 Jasminder "Fresh Mango and Passion… N/A                     NA
    ##  5      1       1 Jonathan  "Carrot Cake with Lime a… Three Tiered …          NA
    ##  6      1       1 Lea       "Cranberry and Pistachio… Raspberries a…          NA
    ##  7      1       1 Louise    "Carrot and Orange Cake"  Never Fail Ch…          NA
    ##  8      1       1 Mark      "Sticky Marmalade Tea Lo… Heart-shaped …          NA
    ##  9      1       1 Miranda   "Triple Layered Brownie … Three Tiered …          NA
    ## 10      1       1 Ruth      "Three Tiered Lemon Driz… Classic Choco…          NA
    ## # ℹ 538 more rows
    ## # ℹ 3 more variables: `Baker Occupation` <chr>, technical <chr>, result <chr>

``` r
# Filter and create a table showing Star Baker or winners for seasons 5 to 10
star_baker_table <- final_data %>%
  filter(result %in% c("STAR BAKER", "WINNER"), Series >= 5) %>%
  arrange(Series, Episode) %>%
  select(Series, Episode, Baker, result)

# Print Star Baker or winners table
print(star_baker_table)
```

    ## # A tibble: 40 × 4
    ##    Series Episode Baker   result    
    ##     <dbl>   <dbl> <chr>   <chr>     
    ##  1      5       1 Nancy   STAR BAKER
    ##  2      5       2 Richard STAR BAKER
    ##  3      5       3 Luis    STAR BAKER
    ##  4      5       4 Richard STAR BAKER
    ##  5      5       5 Kate    STAR BAKER
    ##  6      5       6 Chetna  STAR BAKER
    ##  7      5       7 Richard STAR BAKER
    ##  8      5       8 Richard STAR BAKER
    ##  9      5       9 Richard STAR BAKER
    ## 10      5      10 Nancy   WINNER    
    ## # ℹ 30 more rows
…
    ## Rows: 10 Columns: 11
    ## ── Column specification ────────────────────────────────────────────────────────
    ## Delimiter: ","
    ## dbl (11): Episode, Series 1, Series 2, Series 3, Series 4, Series 5, Series ...
    ## 
    ## ℹ Use `spec()` to retrieve the full column specification for this data.
    ## ℹ Specify the column types or set `show_col_types = FALSE` to quiet this message.

``` r
# Show first 10 rows of the cleaned viewers dataset
viewers %>%
  print(n = 10)
```

    ## # A tibble: 100 × 3
    ##    Episode series viewership
    ##      <dbl>  <dbl>      <dbl>
    ##  1       1      1       2.24
    ##  2       1      2       3.1 
    ##  3       1      3       3.85
    ##  4       1      4       6.6 
    ##  5       1      5       8.51
    ##  6       1      6      11.6 
    ##  7       1      7      13.6 
    ##  8       1      8       9.46
    ##  9       1      9       9.55
    ## 10       1     10       9.62
    ## # ℹ 90 more rows
…
